% Generated by IEEEtran.bst, version: 1.13 (2008/09/30)
\begin{thebibliography}{1}
\providecommand{\url}[1]{#1}
\csname url@samestyle\endcsname
\providecommand{\newblock}{\relax}
\providecommand{\bibinfo}[2]{#2}
\providecommand{\BIBentrySTDinterwordspacing}{\spaceskip=0pt\relax}
\providecommand{\BIBentryALTinterwordstretchfactor}{4}
\providecommand{\BIBentryALTinterwordspacing}{\spaceskip=\fontdimen2\font plus
\BIBentryALTinterwordstretchfactor\fontdimen3\font minus
  \fontdimen4\font\relax}
\providecommand{\BIBforeignlanguage}[2]{{%
\expandafter\ifx\csname l@#1\endcsname\relax
\typeout{** WARNING: IEEEtran.bst: No hyphenation pattern has been}%
\typeout{** loaded for the language `#1'. Using the pattern for}%
\typeout{** the default language instead.}%
\else
\language=\csname l@#1\endcsname
\fi
#2}}
\providecommand{\BIBdecl}{\relax}
\BIBdecl

\bibitem{Kersten2003}
\BIBentryALTinterwordspacing
D.~Kersten and A.~Yuille, ``{Bayesian models of object perception},''
  \emph{Current Opinion in Neurobiology}, vol.~13, no.~2, pp. 150--158, Apr.
  2003. [Online]. Available:
  \url{http://linkinghub.elsevier.com/retrieve/pii/S0959438803000424}
\BIBentrySTDinterwordspacing

\bibitem{Mamassian2002}
P.~Mamassian, M.~Landy, and L.~T. Maloney, ``{Bayesian modelling of visual
  perception},'' \emph{PROBABILISTIC MODELS OF THE BRAIN: PERCEPTION AND NEURAL
  FUNCTION}, pp. 13 -- 36, 2002.

\bibitem{Horn1990}
\BIBentryALTinterwordspacing
B.~K.~P. Horn, ``{Height and gradient from shading},'' \emph{International
  Journal of Computer Vision}, vol.~5, no.~1, pp. 37--75, Aug. 1990. [Online].
  Available: \url{http://link.springer.com/10.1007/BF00056771}
\BIBentrySTDinterwordspacing

\bibitem{Pentland1990}
\BIBentryALTinterwordspacing
A.~P. Pentland, ``{Linear shape from shading},'' \emph{International Journal of
  Computer Vision}, vol.~4, no.~2, pp. 153--162, Mar. 1990. [Online].
  Available: \url{http://link.springer.com/10.1007/BF00127815}
\BIBentrySTDinterwordspacing

\bibitem{Freeman1996}
\BIBentryALTinterwordspacing
W.~Freeman, ``{Exploiting the generic viewpoint assumption},''
  \emph{International Journal of Computer Vision}, vol.~20, no.~3, pp. 243 --
  261, Dec. 1996. [Online]. Available:
  \url{http://link.springer.com/10.1007/BF00208721}
\BIBentrySTDinterwordspacing

\end{thebibliography}
